{
  "name": "machine",
  "base": "PersistedModel",
  "idInjection": true,
  "forceId": false,
  "options": {
    "validateUpsert": true
  },
  "properties": {
    "position": {
      "type": "string"
    },
    "closing_time": {
      "type": "string"
    },
    "active": {
      "type": "string"
    }
  },
  "validations": [],
  "relations": {},
  "acls": [],
  "methods": {}
}
